{
    "configurations" : {
        "NODE_ENV": "Staging",
        "LOG_PATH": "./logs/http.log.txt",
        "ERR_PATH": "./logs/errors.log.txt",
        "PORT": 8081,
        "HOST": "localhost"     
    },
    "flags" : {
        "limited_amount_b2b" :true,
        "limited_amount_b2i" :true,
        "limited_amount_b2bfx" :true,
        "limited_amount_f2b" :true
    }
    
 }
  